Homework 4 Site - task3
…
# 9. Add mean & sd of alcohol by quality
summary_stats = high_quality_small |>
  group_by(quality) |>
  summarise(
    mean_alcohol = mean(alcohol, na.rm = TRUE),
    sd_alcohol   = sd(alcohol, na.rm = TRUE),
    .groups = "drop"
  )

# Show final outputs
high_quality_small

# A tibble: 365 × 3
   alcohol type  quality
     <dbl> <chr>   <dbl>
 1      11 white       8
 2      11 white       8
 3      11 white       8
 4      11 white       8
 5      12 white       8
 6      11 white       8
 7      11 white       8
 8      12 white       8
 9      13 white       8
10      13 white       8
# ℹ 355 more rows
…
